---
http_interactions:
- request:
    method: post
    uri: https://api.flickr.com/services/rest/
    body:
      encoding: US-ASCII
      string: user_id=33668819%40N03&per_page=20&page=1&method=flickr.people.getPhotos&format=json&nojsoncallback=1
    headers:
      Accept-Encoding:
      - gzip;q=1.0,deflate;q=0.6,identity;q=0.3
      Accept:
      - "*/*"
      User-Agent:
      - FlickRaw/0.9.9
      Authorization:
      - OAuth realm="https://api.flickr.com/services/rest/", oauth_consumer_key="06d068ffa30bffec9719b29457ee38bd",
        oauth_nonce="43zXGRpE7N2kfjwP6rS7tY6omALQo5Y%2FFRxv6Q2COAI%3D", oauth_signature="d0030bbe1e6652e2%26",
        oauth_signature_method="PLAINTEXT", oauth_timestamp="1478408047", oauth_token="",
        oauth_version="1.0"
      Content-Type:
      - application/x-www-form-urlencoded
  response:
    status:
      code: 200
      message: OK
    headers:
      Date:
      - Sun, 06 Nov 2016 04:54:07 GMT
      Content-Type:
      - application/json
      Content-Length:
      - '617'
      P3p:
      - policyref="https://policies.yahoo.com/w3c/p3p.xml", CP="CAO DSP COR CUR ADM
        DEV TAI PSA PSD IVAi IVDi CONi TELo OTPi OUR DELi SAMi OTRi UNRi PUBi IND
        PHY ONL UNI PUR FIN COM NAV INT DEM CNT STA POL HEA PRE LOC GOV"
      X-Content-Type-Options:
      - nosniff
      Cache-Control:
      - private
      X-Served-By:
      - www56.flickr.bf1.yahoo.com
      X-Frame-Options:
      - SAMEORIGIN
      Vary:
      - Accept-Encoding
      Age:
      - '0'
      Via:
      - http/1.1 fts102.flickr.bf1.yahoo.com (ApacheTrafficServer [cMsSf ]), http/1.1
        e19.ycpi.sja.yahoo.com (ApacheTrafficServer [cMsSf ])
      Server:
      - ATS
      Connection:
      - keep-alive
    body:
      encoding: ASCII-8BIT
      string: '{"photos":{"page":1,"pages":60,"perpage":20,"total":"1195","photo":[{"id":"15889417869","owner":"33668819@N03","secret":"d3b603109b","server":"8580","farm":9,"title":"IMG_6661","ispublic":1,"isfriend":0,"isfamily":0},{"id":"16075507845","owner":"33668819@N03","secret":"a6f897ba56","server":"8679","farm":9,"title":"IMG_6659","ispublic":1,"isfriend":0,"isfamily":0},{"id":"15889416779","owner":"33668819@N03","secret":"51f10c906d","server":"7532","farm":8,"title":"IMG_6651","ispublic":1,"isfriend":0,"isfamily":0},{"id":"16049708866","owner":"33668819@N03","secret":"2dbeba6b4f","server":"8672","farm":9,"title":"IMG_6649","ispublic":1,"isfriend":0,"isfamily":0},{"id":"16049708266","owner":"33668819@N03","secret":"84b7ee487e","server":"7483","farm":8,"title":"IMG_6630","ispublic":1,"isfriend":0,"isfamily":0},{"id":"15889415009","owner":"33668819@N03","secret":"822d0e12f4","server":"8592","farm":9,"title":"IMG_6625","ispublic":1,"isfriend":0,"isfamily":0},{"id":"16073576461","owner":"33668819@N03","secret":"1c20cf9881","server":"7469","farm":8,"title":"IMG_6619","ispublic":1,"isfriend":0,"isfamily":0},{"id":"16074806432","owner":"33668819@N03","secret":"da7251e039","server":"8594","farm":9,"title":"IMG_6601","ispublic":1,"isfriend":0,"isfamily":0},{"id":"16049705786","owner":"33668819@N03","secret":"60048fa5cb","server":"7509","farm":8,"title":"IMG_6572","ispublic":1,"isfriend":0,"isfamily":0},{"id":"15889412109","owner":"33668819@N03","secret":"b0e5c3326e","server":"7569","farm":8,"title":"IMG_6560","ispublic":1,"isfriend":0,"isfamily":0},{"id":"16073573181","owner":"33668819@N03","secret":"3ef9cbcb69","server":"7539","farm":8,"title":"IMG_6550","ispublic":1,"isfriend":0,"isfamily":0},{"id":"16049703136","owner":"33668819@N03","secret":"3f42338b47","server":"8661","farm":9,"title":"IMG_6536","ispublic":1,"isfriend":0,"isfamily":0},{"id":"16074802412","owner":"33668819@N03","secret":"afccc82d46","server":"7506","farm":8,"title":"IMG_6523","ispublic":1,"isfriend":0,"isfamily":0},{"id":"16074801712","owner":"33668819@N03","secret":"768e0d61c6","server":"7489","farm":8,"title":"IMG_6522","ispublic":1,"isfriend":0,"isfamily":0},{"id":"16075498235","owner":"33668819@N03","secret":"39eddc5a02","server":"7551","farm":8,"title":"IMG_6521","ispublic":1,"isfriend":0,"isfamily":0},{"id":"15889734797","owner":"33668819@N03","secret":"1fbe6045dd","server":"8652","farm":9,"title":"IMG_6513","ispublic":1,"isfriend":0,"isfamily":0},{"id":"16075496405","owner":"33668819@N03","secret":"d0fac92f66","server":"7535","farm":8,"title":"IMG_6511","ispublic":1,"isfriend":0,"isfamily":0},{"id":"15455835233","owner":"33668819@N03","secret":"35b87b65f9","server":"8663","farm":9,"title":"IMG_6510","ispublic":1,"isfriend":0,"isfamily":0},{"id":"15888063008","owner":"33668819@N03","secret":"1c6550244c","server":"7494","farm":8,"title":"IMG_6507","ispublic":1,"isfriend":0,"isfamily":0},{"id":"15888216420","owner":"33668819@N03","secret":"71c4e3dfd1","server":"7541","farm":8,"title":"IMG_6498","ispublic":1,"isfriend":0,"isfamily":0}]},"stat":"ok"}'
    http_version: 
  recorded_at: Sun, 06 Nov 2016 04:54:07 GMT
recorded_with: VCR 3.0.3
